…
##  [1] "id"       "year"     "age"      "class"    "degree"   "sex"     
##  [7] "marital"  "race"     "region"   "partyid"  "happy"    "relig"   
## [13] "cappun"   "finalter" "natspac"  "natarms"  "conclerg" "confed"  
## [19] "conpress" "conjudge" "consci"   "conlegis" "zodiac"   "oversamp"
## [25] "postlife" "party"    "space"    "NASA"

Question: Is funding for space exploration (NASA) a partisan issue?

Lets start by looking at responses to the question: Do you think funding for space exploration is too little, about right, or too much?

gss %>% select(party, NASA)

## # A tibble: 149 x 2
##     party        NASA
##    <fctr>      <fctr>
##  1    Ind  TOO LITTLE
##  2    Ind ABOUT RIGHT
##  3    Dem ABOUT RIGHT
##  4    Ind  TOO LITTLE
##  5    Ind    TOO MUCH
##  6    Ind  TOO LITTLE
##  7    Ind ABOUT RIGHT
##  8    Dem ABOUT RIGHT
##  9    Dem  TOO LITTLE
## 10    Ind  TOO LITTLE
## # ... with 139 more rows
…
Programatic Solution

Another way to test if there is a significant relationship in our data is to take a programatic approach.

In his talk, Andrew Bray says:

If we live in world where variables are totally unrelated, the ties between variables are arbitrary, so they might just as well have been shuffled.

What would that random world look like? Lets take one of the columns of our data_frame and scramble it.

gss %>% select(party, NASA) %>% 
  mutate(permutation_1 = sample(NASA),
         permutation_2 = sample(NASA))

## # A tibble: 149 x 4
##     party        NASA permutation_1 permutation_2
##    <fctr>      <fctr>        <fctr>        <fctr>
##  1    Ind  TOO LITTLE   ABOUT RIGHT      TOO MUCH
##  2    Ind ABOUT RIGHT   ABOUT RIGHT    TOO LITTLE
##  3    Dem ABOUT RIGHT   ABOUT RIGHT   ABOUT RIGHT
##  4    Ind  TOO LITTLE   ABOUT RIGHT   ABOUT RIGHT
##  5    Ind    TOO MUCH   ABOUT RIGHT   ABOUT RIGHT
##  6    Ind  TOO LITTLE      TOO MUCH   ABOUT RIGHT
##  7    Ind ABOUT RIGHT    TOO LITTLE   ABOUT RIGHT
##  8    Dem ABOUT RIGHT   ABOUT RIGHT   ABOUT RIGHT
##  9    Dem  TOO LITTLE    TOO LITTLE    TOO LITTLE
## 10    Ind  TOO LITTLE   ABOUT RIGHT   ABOUT RIGHT
## # ... with 139 more rows
…
## # A tibble: 1 x 1
##   p_val
##   <dbl>
## 1  0.86

If we omit visualize, we get a dataframe of the permuted values:

gss %>% 
  specify(NASA ~ party)  %>% 
  hypothesize(null = "independence") %>% 
  generate(reps = 1000, type = "permute") %>% 
  calculate(stat = "Chisq") #%>% 

## # A tibble: 1,000 x 2
##    replicate      stat
##       <fctr>     <dbl>
##  1         1  6.617590
##  2         2  3.882754
##  3         3  3.447152
##  4         4  2.085589
##  5         5  5.538145
##  6         6 11.827048
##  7         7  1.820784
##  8         8  3.166788
##  9         9  1.993071
## 10        10  4.095675
## # ... with 990 more rows
…
